…
The instacart dataset includes data from online grocery orders. The dataset includes 1384617 rows/observations and 15 columns/variables. Key variables include identifiers for each order, product, customer, aisle, and department; the day/hour of purchase; and product, aisle, and department names. For example, we can see that Spring Water was ordered from the aisle containing water seltzer sparkling water in the department including beverages on day 6 of the week.

``` r
aisles = instacart %>% 
  group_by(aisle, aisle_id) %>%
  tally() %>% 
  arrange(desc(n))
aisles
```

    ## # A tibble: 134 x 3
    ## # Groups:   aisle [134]
    ##    aisle                         aisle_id      n
    ##    <chr>                            <int>  <int>
    ##  1 fresh vegetables                    83 150609
    ##  2 fresh fruits                        24 150473
    ##  3 packaged vegetables fruits         123  78493
    ##  4 yogurt                             120  55240
    ##  5 packaged cheese                     21  41699
    ##  6 water seltzer sparkling water      115  36617
    ##  7 milk                                84  32644
    ##  8 chips pretzels                     107  31269
    ##  9 soy lactosefree                     91  26240
    ## 10 bread                              112  23635
    ## # … with 124 more rows
…
